# Blender v2.81 (sub 16) OBJ File: 'nc_player_hand.blend'
# www.blender.org
o Body.001_Plane.003
v 0.125546 -0.323360 0.376964
v 0.125546 -1.076640 0.376964
v -0.125547 -0.323360 0.376964
v -0.125547 -1.076640 0.376964
v 0.125546 -0.323360 0.623036
v 0.125546 -1.076640 0.623036
v -0.125547 -0.323360 0.623036
v -0.125547 -1.076640 0.623036
v 0.138101 -0.285696 0.364661
v 0.138101 -1.114304 0.364661
v -0.138102 -0.285696 0.364661
v -0.138102 -1.114304 0.364661
v 0.138101 -0.285696 0.635339
v 0.138101 -1.114304 0.635339
v -0.138102 -0.285696 0.635339
v -0.138102 -1.114304 0.635339
vt 0.812500 0.500000
vt 0.812500 0.687500
vt 0.750000 0.687500
vt 0.750000 0.500000
vt 0.687500 0.687500
vt 0.687500 0.500000
vt 0.625000 0.687500
vt 0.625000 0.500000
vt 0.875000 0.500000
vt 0.875000 0.687500
vt 0.812500 0.750000
vt 0.750000 0.750000
vt 0.750000 0.687500
vt 0.812500 0.687500
vt 0.750000 0.750000
vt 0.687500 0.750000
vt 0.812500 0.250000
vt 0.812500 0.437500
vt 0.750000 0.437500
vt 0.750000 0.250000
vt 0.687500 0.437500
vt 0.687500 0.250000
vt 0.625000 0.437500
vt 0.625000 0.250000
vt 0.875000 0.250000
vt 0.875000 0.437500
vt 0.812500 0.500000
vt 0.750000 0.500000
vt 0.750000 0.437500
vt 0.812500 0.437500
vt 0.750000 0.500000
vt 0.687500 0.500000
vn -0.0000 -0.0000 -1.0000
vn -1.0000 0.0000 -0.0000
vn 0.0000 0.0000 1.0000
vn 1.0000 -0.0000 0.0000
vn -0.0000 1.0000 -0.0000
vn -0.0000 -1.0000 0.0000
s off
f 1/1/1 2/2/1 4/3/1 3/4/1
f 3/4/2 4/3/2 8/5/2 7/6/2
f 7/6/3 8/5/3 6/7/3 5/8/3
f 5/9/4 6/10/4 2/2/4 1/1/4
f 3/11/5 7/12/5 5/13/5 1/14/5
f 8/5/6 4/3/6 2/15/6 6/16/6
f 9/17/1 10/18/1 12/19/1 11/20/1
f 11/20/2 12/19/2 16/21/2 15/22/2
f 15/22/3 16/21/3 14/23/3 13/24/3
f 13/25/4 14/26/4 10/18/4 9/17/4
f 11/27/5 15/28/5 13/29/5 9/30/5
f 16/21/6 12/19/6 10/31/6 14/32/6
